Table 1,,,
Reaction Type,Smarts substructure,Reaction Smarts,Compatability filter
Amides,[#7]C=O,"[C:1](=[O:2])[N:3]>>[C:1](=[O:2])-[ClD1,OD1].[N!H0:3]","Alcohols and amines, ammonia synthons"
Sulfonamides,[#6]S([#7])(=O)=O,"[$([#1,*])][S:1](=[O:2])(=[O:3])[N:4]([$([#1,*])])[$([#1,*])]>>Cl[S:1]([$([#1,*])])(=[O:2])=[O:3].[N!H0:4]","Alcohols and amines, ammonia synthons"
Sonogashira,[#6]C#Cc(:c):c,"[$([#6:1])][C:2]#[C:3][$([#1,*:4])]>>[H][C:2]#[C:3][$([#1,*:4])].Br[$([#6:1])]","Alkynes, aryl iodides and bromides"
Ureas,[#7]C([#7])=O,"[$([#1,*])][N:1]([$([#1,*])])[C:2](=[O:3])[N:4]([$([#1,*])])[$([#1,*])]>>[$([#1,*])]N[$([#1,*])].[$([#1,*])]N[$([#1,*])]",Amines
ArN,c-[#7],"[$([#1,*])]:[c:1](:[$([#1,*])])[N:2]([$([#1,*])])[$([#1,*])]>>[N!H0:2].Br[c:1](:[$([#1,*])]):[$([#1,*])]","Amines, aryl iodides and bromides, amide synthons, ammonia synthons"
Suzuki,a:c(:a)-c(:a):a,"[$([#1,*])]:[c:1](:[$([#1,*])])-[c:2](:[$([#1,*])]):[$([#1,*])]>>Br[c:1](:[$([#1,*])]):[$([#1,*])].OB(O)[c:2](:[$([#1,*])]):[$([#1,*])]",Aryl iodides and bromides
Reductive Amination,[#6]N[#6],"[H][C:1]([$([#1,*])])([$([#1,*])])[N:2]([$([#1,*])])[$([#1,*])]>>[N!H0:2].[$([#1,*])][C:1]([$([#1,*])])=O","Ketones, aldehydes, amines, ammonia synthons"
N-Alkylation,[#6]N[#6],"[$([#1,*])][N:1]([$([#1,*])])[C:2]([$([#1,*])])([$([#1,*])])[$([#1,*])]>>[N!H0:1].Br[C:2]([$([#1,*])])([$([#1,*])])[$([#1,*])]","Halides, amines, ammonia synthons"
Ethers, [#6:1][Ox0:2][#6:3] ," [#6:1][Ox0:2][C:3]([$([#1,*])])([$([#1,*])])[$([#1,*])]>>[#6:1][OH1:2].Br[C:3]([$([#1,*])])([$([#1,*])])[$([#1,*])]","Alcohols, amines, halogens, acids."
Esters,CO,"[$([#1,*])][C:1](=[O:2])[O:3][$([#6])]>>Cl[C:1]([$([#1,*])])=[O:2].[H][O:3][#6]","Amines, alcohols, acids"
Heterocycle (Benzoimidazole),N1C=NC2=CC=CC=C12,"[H]C1=NC2=C([$([#1,*])])C([$([#1,*])])=C([$([#1,*])])C([$([#1,*])])=C2N1[$([#1,*])]>>[#7]-[$([#1,*])].[O-][N+](=O)C1=C(F)C([$([#1,*])])=C([$([#1,*])])C([$([#1,*])])=C1[$([#1,*])]","Amines, ammonia synthons"
Heterocycle (4-subs Imidazole),N1C=CN=C1,"[H]C1=NC(=C([$([#1,*])])N1[$([#1,*])])C([$([#1,*])])([$([#1,*])])[$([#1,*])]>>[#7]-[$([#1,*])].BrC([$([#1,*])])C(=O)C([$([#1,*])])([$([#1,*])])[$([#1,*])]","Amines, halides"
Heterocycle (2-subs Imidazole),N1C=CN=C1,"[H][N:5]1[C:1]([$([#1,*])])=[N:2][C:3]([$([#1,*])])=[C:4]1[$([#1,*])]>>[N!H0:5][C:1]([$([#1,*])])=[N!H0:2].Cl[C:3]([$([#1,*])])[C:4]([$([#1,*])])=O","Aliphatic halides, aldehydes, formamidine synthons"
Heterocycle (Oxazoles),O1C=CN=C1,"[$([#1,*])][C:4]1=[N:1][C:2]([$([#1,*])])=[C:3]([$([#1,*])])[O:5]1>>Cl[C:4]([$([#1,*])])=[O:5].[N!H0:1][C:2]([$([#1,*])])([$([#1])])[C:3]([$([#1,*])])=O","Amines, carbonyls, hydrazines, HC(=O)Cl synthons"
Heterocycle (Triazole),N1C=NC=N1,"[C:2]1([$([#1,*])])=[N:3][N:4]([$([#1,*])])[C:5]([$([#1,*])])=[N:1]1>>[N!H0:3][N:4][C:5]=O.[N!H0:1][C:2]([$([#1,*])])=O","Hydrazine, hydrazide, primary amides"
Heterocycle (Benzopiperidine),[H]N1CCC2=C(C1)C=CC=C2,"[H]N1C([$([#1,*])])([$([#1,*])])C2=C(C([$([#1,*])])=C([$([#1,*])])C([$([#1,*])])=C2[$([#1,*])])C([$([#1,*])])([$([#1,*])])C1([$([#1,*])])[$([#1,*])]>>[$([#1,*])]C([$([#1,*])])=O.[#7]C([$([#1,*])])([$([#1,*])])C([$([#1,*])])([$([#1,*])])C1=CC([$([#1,*])])=C([$([#1,*])])C([$([#1,*])])=C1[$([#1,*])]",Amines
Heterocycle (2-Aryl indoles),[H]N1C=CC2=CC=CC=C12,"[$([#1,*])]:c(:[$([#1,*])])C1=CC2=C([$([#1,*])])C([$([#1,*])])=C([$([#1,*])])C([$([#1,*])])=C2N1>>[N!H0:1][C:2]1=[C:3]([H])C([$([#1,*])])=C([$([#1,*])])C([$([#1,*])])=C1[$([#1,*])].BrCC(=O)c(:[$([#1,*])]):[$([#1,*])]",Amines
Heterocycle (Benzoxazole),O1C=NC2=CC=CC=C12,"[$([#1,*])]C1=NC2=C([$([#1,*])])C([$([#1,*])])=C([$([#1,*])])C([$([#1,*])])=C2O1>>OC([$([#1,*])])=O.[#7]C1=C([$([#1,*])])C([$([#1,*])])=C([$([#1,*])])C([$([#1,*])])=C1O","Acids, amines, formic acid synthons"
Heterocycle (Tetrazole),N1C=NN=N1,"[$([#1,*])]C1=NN([$([#1,*])])N=N1>>[$([#1,*])]C#N.[$([#1,*])]N=[N+]=[N-]","Nitrile, conjugated nitrile"
"Heterocycle (1,3,4-triazole)",N1C=NN=C1,"[$([#1,*])]C1=NN=C([$([#1,*])])N1>>[$([#1,*])]C#N.[#7]NC([$([#1,*])])=O","Nitrile, conjugated nitrile"
"Heterocycle (1,2,3-triazole)",N1C=CN=N1,"[$([#1,*])]N1C=C([$([#1,*])])N=N1>>[$([#1,*])]C#C.[$([#1,*])]N=[N+]=[N-]",None
Heterocycle (Indole),N1C=CC2=C1C=CC=C2,"[$([#1,*])]C1=C([$([#1,*])])C2=C([$([#1,*])])C([$([#1,*])])=C([$([#1,*])])C([$([#1,*])])=C2N1>>[$([#1,*])]C(=O)C[$([#1,*])].[#7]NC1=CC([$([#1,*])])=C([$([#1,*])])C([$([#1,*])])=C1[$([#1,*])]","Amines, hydrogen cyanide synthons, formic acid synthons"
Heterocycle (Oxadiazole),O1C=NC=N1,"[$([#1,*])]C1=NC([$([#1,*])])=NO1>>[$([#1,*])]C#N.OC([$([#1,*])])=O",
